{
    "name": "PlayerInputActionsSettings",
    "maps": [
        {
            "name": "BasicControls",
            "id": "60d237e4-f563-4fd3-b898-e15cba5f0553",
            "actions": [
                {
                    "name": "Movement",
                    "type": "Value",
                    "id": "5c4be0b5-2c82-4974-8049-e5fc70c368cb",
                    "expectedControlType": "Axis",
                    "processors": "",
                    "interactions": "",
                    "initialStateCheck": true
                },
                {
                    "name": "Rotate",
                    "type": "Value",
                    "id": "f32d3024-f977-4bd3-b105-644a67134bc8",
                    "expectedControlType": "Axis",
                    "processors": "",
                    "interactions": "",
                    "initialStateCheck": true
                },
                {
                    "name": "Shoot",
                    "type": "Button",
                    "id": "4b4e4d10-0207-4ecf-9a18-fe7c3eabb5f9",
                    "expectedControlType": "Button",
                    "processors": "",
                    "interactions": "",
                    "initialStateCheck": false
                }
            ],
            "bindings": [
                {
                    "name": "WS",
                    "id": "0007d77c-d3db-4a28-99b8-4893b84f8363",
                    "path": "1DAxis",
                    "interactions": "",
                    "processors": "",
                    "groups": "",
                    "action": "Movement",
                    "isComposite": true,
                    "isPartOfComposite": false
                },
                {
                    "name": "negative",
                    "id": "a5e11d34-90ba-4b32-8e24-cc45a42b6faf",
                    "path": "<Keyboard>/s",
                    "interactions": "",
                    "processors": "",
                    "groups": "Keyboard",
                    "action": "Movement",
                    "isComposite": false,
                    "isPartOfComposite": true
                },
                {
                    "name": "positive",
                    "id": "0bf82a45-6e7d-4abe-a130-29b70a82f5d9",
                    "path": "<Keyboard>/w",
                    "interactions": "",
                    "processors": "",
                    "groups": "Keyboard",
                    "action": "Movement",
                    "isComposite": false,
                    "isPartOfComposite": true
                },
                {
                    "name": "Arrows",
                    "id": "f398332f-c22e-4ab1-b050-b9cb55511cff",
                    "path": "1DAxis",
                    "interactions": "",
                    "processors": "",
                    "groups": "Keyboard",
                    "action": "Movement",
                    "isComposite": true,
                    "isPartOfComposite": false
                },
                {
                    "name": "negative",
                    "id": "ed317c1d-cfd9-44e3-bcb7-1b27db84eaa1",
                    "path": "<Keyboard>/downArrow",
                    "interactions": "",
                    "processors": "",
                    "groups": "Keyboard",
                    "action": "Movement",
                    "isComposite": false,
                    "isPartOfComposite": true
                },
                {
                    "name": "positive",
                    "id": "254631be-05db-47e8-bfe2-f0c0d6862aae",
                    "path": "<Keyboard>/upArrow",
                    "interactions": "",
                    "processors": "",
                    "groups": "Keyboard",
                    "action": "Movement",
                    "isComposite": false,
                    "isPartOfComposite": true
                },
                {
                    "name": "Arrows",
                    "id": "6c361e8f-2ca1-4e03-be7a-04165e8c9953",
                    "path": "1DAxis",
                    "interactions": "Hold",
                    "processors": "",
                    "groups": "",
                    "action": "Rotate",
                    "isComposite": true,
                    "isPartOfComposite": false
                },
                {
                    "name": "negative",
                    "id": "0a56913d-7c5a-4f5d-b9dc-26ffa64aa89e",
                    "path": "<Keyboard>/rightArrow",
                    "interactions": "",
                    "processors": "",
                    "groups": "Keyboard",
                    "action": "Rotate",
                    "isComposite": false,
                    "isPartOfComposite": true
                },
                {
                    "name": "positive",
                    "id": "ea12bd32-7725-474e-bf0d-43725c59e1d4",
                    "path": "<Keyboard>/leftArrow",
                    "interactions": "",
                    "processors": "",
                    "groups": "Keyboard",
                    "action": "Rotate",
                    "isComposite": false,
                    "isPartOfComposite": true
                },
                {
                    "name": "AD",
                    "id": "32cf9858-27d7-4d47-87e0-d3320a232ae9",
                    "path": "1DAxis",
                    "interactions": "Hold",
                    "processors": "",
                    "groups": "",
                    "action": "Rotate",
                    "isComposite": true,
                    "isPartOfComposite": false
                },
                {
                    "name": "negative",
                    "id": "283e9bea-c365-4d56-a794-100a72022ebc",
                    "path": "<Keyboard>/d",
                    "interactions": "",
                    "processors": "",
                    "groups": "Keyboard",
                    "action": "Rotate",
                    "isComposite": false,
                    "isPartOfComposite": true
                },
                {
                    "name": "positive",
                    "id": "1f8e7ad3-ef71-45d0-b1dd-000d7f4a89e8",
                    "path": "<Keyboard>/a",
                    "interactions": "",
                    "processors": "",
                    "groups": "Keyboard",
                    "action": "Rotate",
                    "isComposite": false,
                    "isPartOfComposite": true
                },
                {
                    "name": "",
                    "id": "d588de13-6189-4cb5-a362-af7761ae2e36",
                    "path": "<Keyboard>/space",
                    "interactions": "",
                    "processors": "",
                    "groups": "Keyboard",
                    "action": "Shoot",
                    "isComposite": false,
                    "isPartOfComposite": false
                }
            ]
        }
    ],
    "controlSchemes": [
        {
            "name": "Keyboard",
            "bindingGroup": "Keyboard",
            "devices": [
                {
                    "devicePath": "<Keyboard>",
                    "isOptional": false,
                    "isOR": false
                }
            ]
        }
    ]
}